{
 "controlParams": {
  "config": {
   "id": "dummyqkd__0__16_alice",
   "side": "Alice",
   "switchName": "",
   "switchPort": "",
   "kind": "dummyqkd",
   "bytesPerKey": 0 
  },
  "controlAddress": "192.168.1.163:44244",
  "siteAgentAddress": "192.168.1.163:9000"
 },
}
